HuberMokate_20April2021_InClass
…
master_set_2 <- 
  master_set_1 %>%
  pivot_longer(cols = c("Minimum Wage", inflat_adj, prod_adj, inflat_prod_adj),
               names_to = "Type",
               values_to = "Dollars")

#If people want to see more, show in R Studio
master_set_1

## # A tibble: 71 x 8
##     Year `Minimum Wage` ann_inflat inflat_adj net_prod_change prod_adj
##    <dbl>          <dbl>      <dbl>      <dbl>           <dbl>    <dbl>
##  1  1948           0.4     0.081        0.4            0         0.4  
##  2  1949           0.4    -0.012        0.395          0.0155    0.406
##  3  1950           0.75    0.013        0.400          0.0779    0.438
##  4  1951           0.75    0.079        0.432          0.029     0.451
##  5  1952           0.75    0.019        0.440          0.0325    0.465
##  6  1953           0.75    0.008        0.444          0.0392    0.483
##  7  1954           0.75    0.00700      0.447          0.0203    0.493
##  8  1955           0.75   -0.004        0.445          0.0494    0.518
##  9  1956           1       0.015        0.452          0.0021    0.519
## 10  1957           1       0.033        0.467          0.0345    0.537
## #  with 61 more rows, and 2 more variables: net_impact <dbl>,
## #   inflat_prod_adj <dbl>

#If people want to see more data, show in R Studio
master_set_2

## # A tibble: 284 x 6
##     Year ann_inflat net_prod_change net_impact Type            Dollars
##    <dbl>      <dbl>           <dbl>      <dbl> <chr>             <dbl>
##  1  1948      0.081          0         0.081   Minimum Wage      0.4  
##  2  1948      0.081          0         0.081   inflat_adj        0.4  
##  3  1948      0.081          0         0.081   prod_adj          0.4  
##  4  1948      0.081          0         0.081   inflat_prod_adj   0.4  
##  5  1949     -0.012          0.0155    0.00350 Minimum Wage      0.4  
##  6  1949     -0.012          0.0155    0.00350 inflat_adj        0.395
##  7  1949     -0.012          0.0155    0.00350 prod_adj          0.406
##  8  1949     -0.012          0.0155    0.00350 inflat_prod_adj   0.401
##  9  1950      0.013          0.0779    0.0909  Minimum Wage      0.75 
## 10  1950      0.013          0.0779    0.0909  inflat_adj        0.400
## #  with 274 more rows
…
master_set_4 <- 
  master_set_3 %>%
  pivot_longer(cols = c(ann_inflat, net_prod_change, net_impact, accum_incr_calc, accum_incr_act),
               names_to = "Increase Type",
               values_to = "Increase Amount")

master_set_4

## # A tibble: 355 x 8
##     Year `Minimum Wage` inflat_adj prod_adj inflat_prod_adj increase_act
##    <dbl>          <dbl>      <dbl>    <dbl>           <dbl>        <dbl>
##  1  1948            0.4      0.4      0.4             0.4              0
##  2  1948            0.4      0.4      0.4             0.4              0
##  3  1948            0.4      0.4      0.4             0.4              0
##  4  1948            0.4      0.4      0.4             0.4              0
##  5  1948            0.4      0.4      0.4             0.4              0
##  6  1949            0.4      0.395    0.406           0.401            0
##  7  1949            0.4      0.395    0.406           0.401            0
##  8  1949            0.4      0.395    0.406           0.401            0
##  9  1949            0.4      0.395    0.406           0.401            0
## 10  1949            0.4      0.395    0.406           0.401            0
## #  with 345 more rows, and 2 more variables: `Increase Type` <chr>, `Increase
## #   Amount` <dbl>
…
